^D:\PHILIPPE\ENSEIGNEMENT\PATRICK\COURS ISIMA\RO\RO_LINEAIRE\NOTES DE COURS\ESSAI_VISUAL\C2_ALIMENT_DIRECTE\PROJET1\SOURCE.CPP
/c /I"D:\PHILIPPE\RECHERCHE\LIVRES\GUSEK\GLPK-4.60\SRC" /I"D:\PHILIPPE\RECHERCHE\LIVRES\GUSEK\GLPK-4.60\W32" /ZI /JMC /nologo /W3 /WX- /diagnostics:column /sdl /Od /Oy- /D _MBCS /Gm- /EHsc /RTC1 /MDd /GS /fp:precise /Zc:wchar_t /Zc:forScope /Zc:inline /Fo"DEBUG\\" /Fd"DEBUG\VC142.PDB" /Gd /TP /analyze- /FC D:\PHILIPPE\ENSEIGNEMENT\PATRICK\COURS ISIMA\RO\RO_LINEAIRE\NOTES DE COURS\ESSAI_VISUAL\C2_ALIMENT_DIRECTE\PROJET1\SOURCE.CPP
^P:\ZZ2\PL\C2_ALIMENT_VERSION_ETUDIANTS\PROJET1\SOURCE.CPP
/c /I"P:\ZZ2\PL\GLPK-4.60\SRC" /I"D:\PHILIPPE\RECHERCHE\LIVRES\GUSEK\GLPK-4.60\SRC" /I"D:\PHILIPPE\RECHERCHE\LIVRES\GUSEK\GLPK-4.60\W32" /ZI /JMC /nologo /W3 /WX- /diagnostics:column /sdl /Od /Oy- /D _MBCS /Gm- /EHsc /RTC1 /MDd /GS /fp:precise /Zc:wchar_t /Zc:forScope /Zc:inline /Fo"DEBUG\\" /Fd"DEBUG\VC142.PDB" /external:W3 /Gd /TP /analyze- /FC P:\ZZ2\PL\C2_ALIMENT_VERSION_ETUDIANTS\PROJET1\SOURCE.CPP
^P:\ZZ2\PL\JOB_SHOP_\PROJET1\SOURCE.CPP
/c /I"P:\ZZ2\PL\GLPK-4.60\SRC" /I"D:\PHILIPPE\RECHERCHE\LIVRES\GUSEK\GLPK-4.60\SRC" /I"D:\PHILIPPE\RECHERCHE\LIVRES\GUSEK\GLPK-4.60\W32" /ZI /JMC /nologo /W3 /WX- /diagnostics:column /sdl /Od /Oy- /D _MBCS /Gm- /EHsc /RTC1 /MDd /GS /fp:precise /Zc:wchar_t /Zc:forScope /Zc:inline /Fo"DEBUG\\" /Fd"DEBUG\VC142.PDB" /external:W3 /Gd /TP /analyze- /FC P:\ZZ2\PL\JOB_SHOP_\PROJET1\SOURCE.CPP
^P:\ZZ2\PROGLINEAIRE\JOB_SHOP_\PROJET1\SOURCE.CPP
/c /I"P:\ZZ2\PROGLINEAIRE\GLPK-4.60\SRC" /ZI /JMC /nologo /W3 /WX- /diagnostics:column /sdl /Od /Oy- /D _MBCS /Gm- /EHsc /RTC1 /MDd /GS /fp:precise /Zc:wchar_t /Zc:forScope /Zc:inline /Fo"DEBUG\\" /Fd"DEBUG\VC142.PDB" /external:W3 /Gd /TP /analyze- /FC P:\ZZ2\PROGLINEAIRE\JOB_SHOP_\PROJET1\SOURCE.CPP
