^D:\PHILIPPE\ENSEIGNEMENT\PATRICK\COURS ISIMA\RO\RO_LINEAIRE\NOTES DE COURS\ESSAI_VISUAL\C2_ALIMENT_DIRECTE\PROJET1\DEBUG\SOURCE.OBJ
/OUT:"D:\PHILIPPE\ENSEIGNEMENT\PATRICK\COURS ISIMA\RO\RO_LINEAIRE\NOTES DE COURS\ESSAI_VISUAL\C2_ALIMENT_DIRECTE\DEBUG\PROJET1.EXE" /INCREMENTAL /NOLOGO /LIBPATH:"D:\PHILIPPE\RECHERCHE\LIVRES\GUSEK\GLPK-4.60\W32" GLPK_4_60.LIB KERNEL32.LIB USER32.LIB GDI32.LIB WINSPOOL.LIB COMDLG32.LIB ADVAPI32.LIB SHELL32.LIB OLE32.LIB OLEAUT32.LIB UUID.LIB ODBC32.LIB ODBCCP32.LIB /MANIFEST /MANIFESTUAC:"level='asInvoker' uiAccess='false'" /manifest:embed /DEBUG:FASTLINK /PDB:"D:\PHILIPPE\ENSEIGNEMENT\PATRICK\COURS ISIMA\RO\RO_LINEAIRE\NOTES DE COURS\ESSAI_VISUAL\C2_ALIMENT_DIRECTE\DEBUG\PROJET1.PDB" /TLBID:1 /DYNAMICBASE /NXCOMPAT /IMPLIB:"D:\PHILIPPE\ENSEIGNEMENT\PATRICK\COURS ISIMA\RO\RO_LINEAIRE\NOTES DE COURS\ESSAI_VISUAL\C2_ALIMENT_DIRECTE\DEBUG\PROJET1.LIB" /MACHINE:X86 DEBUG\SOURCE.OBJ
^P:\ZZ2\PL\C2_ALIMENT_VERSION_ETUDIANTS\PROJET1\DEBUG\SOURCE.OBJ
/OUT:"P:\ZZ2\PL\C2_ALIMENT_VERSION_ETUDIANTS\DEBUG\PROJET1.EXE" /INCREMENTAL /ILK:"DEBUG\PROJET1.ILK" /NOLOGO /LIBPATH:"P:\ZZ2\PL\GLPK-4.60\W32" /LIBPATH:"D:\PHILIPPE\RECHERCHE\LIVRES\GUSEK\GLPK-4.60\W32" GLPK_4_60.LIB KERNEL32.LIB USER32.LIB GDI32.LIB WINSPOOL.LIB COMDLG32.LIB ADVAPI32.LIB SHELL32.LIB OLE32.LIB OLEAUT32.LIB UUID.LIB ODBC32.LIB ODBCCP32.LIB /MANIFEST /MANIFESTUAC:"level='asInvoker' uiAccess='false'" /manifest:embed /DEBUG /PDB:"P:\ZZ2\PL\C2_ALIMENT_VERSION_ETUDIANTS\DEBUG\PROJET1.PDB" /TLBID:1 /DYNAMICBASE /NXCOMPAT /IMPLIB:"P:\ZZ2\PL\C2_ALIMENT_VERSION_ETUDIANTS\DEBUG\PROJET1.LIB" /MACHINE:X86 DEBUG\SOURCE.OBJ
^P:\ZZ2\PL\JOB_SHOP_\PROJET1\DEBUG\SOURCE.OBJ
/OUT:"P:\ZZ2\PL\JOB_SHOP_\DEBUG\PROJET1.EXE" /INCREMENTAL /ILK:"DEBUG\PROJET1.ILK" /NOLOGO /LIBPATH:"P:\ZZ2\PL\GLPK-4.60\W32" /LIBPATH:"D:\PHILIPPE\RECHERCHE\LIVRES\GUSEK\GLPK-4.60\W32" GLPK_4_60.LIB KERNEL32.LIB USER32.LIB GDI32.LIB WINSPOOL.LIB COMDLG32.LIB ADVAPI32.LIB SHELL32.LIB OLE32.LIB OLEAUT32.LIB UUID.LIB ODBC32.LIB ODBCCP32.LIB /MANIFEST /MANIFESTUAC:"level='asInvoker' uiAccess='false'" /manifest:embed /DEBUG /PDB:"P:\ZZ2\PL\JOB_SHOP_\DEBUG\PROJET1.PDB" /TLBID:1 /DYNAMICBASE /NXCOMPAT /IMPLIB:"P:\ZZ2\PL\JOB_SHOP_\DEBUG\PROJET1.LIB" /MACHINE:X86 DEBUG\SOURCE.OBJ
^P:\ZZ2\PROGLINEAIRE\JOB_SHOP_\PROJET1\DEBUG\SOURCE.OBJ
/OUT:"P:\ZZ2\PROGLINEAIRE\JOB_SHOP_\DEBUG\PROJET1.EXE" /INCREMENTAL /ILK:"DEBUG\PROJET1.ILK" /NOLOGO /LIBPATH:"P:\ZZ2\PROGLINEAIRE\GLPK-4.60\W32" GLPK_4_60.LIB KERNEL32.LIB USER32.LIB GDI32.LIB WINSPOOL.LIB COMDLG32.LIB ADVAPI32.LIB SHELL32.LIB OLE32.LIB OLEAUT32.LIB UUID.LIB ODBC32.LIB ODBCCP32.LIB /MANIFEST /MANIFESTUAC:"level='asInvoker' uiAccess='false'" /manifest:embed /DEBUG /PDB:"P:\ZZ2\PROGLINEAIRE\JOB_SHOP_\DEBUG\PROJET1.PDB" /TLBID:1 /DYNAMICBASE /NXCOMPAT /IMPLIB:"P:\ZZ2\PROGLINEAIRE\JOB_SHOP_\DEBUG\PROJET1.LIB" /MACHINE:X86 DEBUG\SOURCE.OBJ
